<svg xmlns="http://www.w3.org/2000/svg" viewBox="0 0 47.5 20.52">
  <defs>
    <style>
      .a, .b {
        fill: #7e4a8f;
      }

      .b {
        opacity: 0.3;
      }
    </style>
  </defs>
  <title>Biut</title>
  <g>
    <path class="a" d="M0,19.82V0H3.78V7.19A5,5,0,0,1,8.09,4.93a5.55,5.55,0,0,1,2.52.54A5.56,5.56,0,0,1,12.48,7a7,7,0,0,1,1.16,2.38,10.66,10.66,0,0,1,.4,3,10.35,10.35,0,0,1-.47,3.28,7.56,7.56,0,0,1-1.3,2.44,5.68,5.68,0,0,1-2,1.55,6.24,6.24,0,0,1-2.52.51,4.42,4.42,0,0,1-4-2.14l0,1.77Zm6.88-2.75a2.82,2.82,0,0,0,2.36-1.22,5.18,5.18,0,0,0,.91-3.17q0-4.48-3.3-4.48T3.63,12.92a4.62,4.62,0,0,0,.93,3A2.87,2.87,0,0,0,6.88,17.07Z"/>
    <path class="a" d="M15.4,3.56V0h3.82V3.56Zm0,16.26V5.3h3.82V19.82Z"/>
    <path class="a" d="M30.29,19.82v-2a4.92,4.92,0,0,1-4.51,2.41,5,5,0,0,1-2-.37,4.52,4.52,0,0,1-1.55-1.1,5,5,0,0,1-1-1.68,6,6,0,0,1-.37-2.18V5.3h3.83v9c0,1.81.81,2.71,2.45,2.71a2.71,2.71,0,0,0,2.22-.92,3.63,3.63,0,0,0,.76-2.38V5.3h3.8V19.82Z"/>
    <path class="a" d="M43.68,10.26h3.55v4.13a7.22,7.22,0,0,1-.35,2.19A5,5,0,0,1,44,19.73a6.55,6.55,0,0,1-2.63.46,6.91,6.91,0,0,1-2.72-.46,5.19,5.19,0,0,1-1.83-1.28,4.86,4.86,0,0,1-1-1.84,7.6,7.6,0,0,1-.32-2.25v-13h3.8V5.3h8V8h-8v6a3.68,3.68,0,0,0,.51,2.14,1.86,1.86,0,0,0,1.68.75,1.93,1.93,0,0,0,1.69-.73,3.48,3.48,0,0,0,.54-2.1Z"/>
    <path class="b" d="M.28,20.14V.31H4.06v7.2A5,5,0,0,1,8.37,5.23a5.59,5.59,0,0,1,2.52.56,5.32,5.32,0,0,1,1.87,1.54,7,7,0,0,1,1.16,2.38,10.6,10.6,0,0,1,.41,3A10.36,10.36,0,0,1,13.85,16a7.61,7.61,0,0,1-1.3,2.45,5.41,5.41,0,0,1-2,1.53A5.92,5.92,0,0,1,8,20.52a4.41,4.41,0,0,1-4-2.16l0,1.78Zm6.88-2.75a2.81,2.81,0,0,0,2.35-1.22A5.19,5.19,0,0,0,10.43,13q0-4.49-3.31-4.49C5,8.5,3.91,10.09,3.91,13.22a4.66,4.66,0,0,0,.93,3A2.85,2.85,0,0,0,7.16,17.39Z"/>
    <path class="b" d="M15.67,3.88V.31h3.84V3.89Zm0,16.26V5.62h3.84V20.14Z"/>
    <path class="b" d="M30.57,20.14v-2a4.94,4.94,0,0,1-4.51,2.42,5.36,5.36,0,0,1-2-.38A4.72,4.72,0,0,1,22.52,19a5.08,5.08,0,0,1-1-1.68,6.31,6.31,0,0,1-.36-2.18V5.62H25v9c0,1.81.82,2.71,2.45,2.71a2.71,2.71,0,0,0,2.22-.92A3.66,3.66,0,0,0,30.39,14V5.62h3.8V20.14Z"/>
    <path class="b" d="M44,10.58H47.5v4.13a7.27,7.27,0,0,1-.34,2.19,5.3,5.3,0,0,1-1.06,1.86,5.13,5.13,0,0,1-1.83,1.29,6.63,6.63,0,0,1-2.62.47,7.12,7.12,0,0,1-2.72-.47,5.25,5.25,0,0,1-1.84-1.27,5.16,5.16,0,0,1-1-1.86,7.87,7.87,0,0,1-.31-2.24V1.7h3.8V5.62h8V8.33h-8v6a3.76,3.76,0,0,0,.51,2.15,1.87,1.87,0,0,0,1.68.74,2,2,0,0,0,1.69-.73,3.5,3.5,0,0,0,.54-2.1Z"/>
  </g>
</svg>
