<svg xmlns="http://www.w3.org/2000/svg" viewBox="0 0 103.71 19.18">
  <defs>
    <style>
      .a {
        fill: #cb2029;
      }
    </style>
  </defs>
  <title>LaCuarta</title>
  <g>
    <path class="a" d="M22.38,6.13a4.74,4.74,0,0,0-1.84-1.07,9.12,9.12,0,0,0-2.68-.35,9.32,9.32,0,0,0-2.71.34,4.9,4.9,0,0,0-1.87,1,3.84,3.84,0,0,0-1.06,1.58,6.31,6.31,0,0,0-.35,1.94V10h3.85l0-.32a2.05,2.05,0,0,1,.53-1.17,2,2,0,0,1,1.41-.41,2.71,2.71,0,0,1,1.39.3.71.71,0,0,1,.4.66.69.69,0,0,1-.28.66,3.74,3.74,0,0,1-1.56.42c-.85.13-1.65.26-2.37.41a6.18,6.18,0,0,0-2,.74,3.67,3.67,0,0,0-1.36,1.43A5,5,0,0,0,11.46,15a3.71,3.71,0,0,0,1.14,2.81,5,5,0,0,0,3.49,1.07,6.35,6.35,0,0,0,2.43-.43,5.15,5.15,0,0,0,1.18-.66,3.66,3.66,0,0,0,.12.5l.08.26h3.79V10.13a7.93,7.93,0,0,0-.3-2.26,4.19,4.19,0,0,0-1-1.74m-2.82,6.49,0,.73a2.06,2.06,0,0,1-.2.92,2.74,2.74,0,0,1-.58.77,2.56,2.56,0,0,1-.84.53,3.12,3.12,0,0,1-1.07.19c-1.12,0-1.27-.53-1.27-1.06a1.16,1.16,0,0,1,.41-1,4.41,4.41,0,0,1,1.84-.66,14,14,0,0,0,1.47-.34l.26-.1"/>
    <path class="a" d="M41.74,12.2a4.31,4.31,0,0,1-1.23,2.32,3.4,3.4,0,0,1-2.34.77,3.17,3.17,0,0,1-2.85-1.43,7.88,7.88,0,0,1-1-4.28,7.73,7.73,0,0,1,1-4.26,3.31,3.31,0,0,1,3-1.45,3.36,3.36,0,0,1,2.11.73,3.72,3.72,0,0,1,1.27,2.1l.07.29h4.32l0-.41A7.76,7.76,0,0,0,45.36,4a6.74,6.74,0,0,0-1.6-2.11A7.38,7.38,0,0,0,41.38.5,9,9,0,0,0,38.33,0a8.73,8.73,0,0,0-3.49.68,7.47,7.47,0,0,0-2.67,2A8.74,8.74,0,0,0,30.5,5.73a13.49,13.49,0,0,0-.58,4.06,11.9,11.9,0,0,0,.63,4,8.8,8.8,0,0,0,1.76,3A7.2,7.2,0,0,0,35,18.59a9.2,9.2,0,0,0,3.3.59,8.1,8.1,0,0,0,2.88-.49,6.83,6.83,0,0,0,2.32-1.4,7.77,7.77,0,0,0,1.66-2.16,10.16,10.16,0,0,0,.94-2.77l.09-.45H41.8Z"/>
    <path class="a" d="M55.75,12.8a2.83,2.83,0,0,1-.58,1.86,2,2,0,0,1-1.68.68c-1.23,0-1.79-.62-1.79-2V5.05H47.58v8.79a5.82,5.82,0,0,0,.35,2.06,5,5,0,0,0,1,1.6,4.21,4.21,0,0,0,1.49,1.05,5.24,5.24,0,0,0,5.51-1v1.08h4V5.05h-4.1Z"/>
    <path class="a" d="M71.56,6.13a4.74,4.74,0,0,0-1.84-1.07A9.12,9.12,0,0,0,67,4.71a9.36,9.36,0,0,0-2.71.34,4.9,4.9,0,0,0-1.87,1A3.94,3.94,0,0,0,61.4,7.63a6.31,6.31,0,0,0-.35,1.94V10h3.85l0-.32a2.05,2.05,0,0,1,.53-1.17,2,2,0,0,1,1.42-.41,2.69,2.69,0,0,1,1.38.3.71.71,0,0,1,.4.66.69.69,0,0,1-.28.66,3.68,3.68,0,0,1-1.56.42c-.85.13-1.65.26-2.37.41a6.18,6.18,0,0,0-2,.74,3.67,3.67,0,0,0-1.36,1.43A5,5,0,0,0,60.64,15a3.71,3.71,0,0,0,1.14,2.81,5,5,0,0,0,3.49,1.07,6.35,6.35,0,0,0,2.43-.43,5,5,0,0,0,1.18-.66,3.66,3.66,0,0,0,.12.5l.08.26h3.8V10.13a7.92,7.92,0,0,0-.31-2.26,4.08,4.08,0,0,0-1-1.74M66,15.76c-1.12,0-1.27-.53-1.27-1.06a1.16,1.16,0,0,1,.41-1A4.41,4.41,0,0,1,67,13.06a13.38,13.38,0,0,0,1.47-.34l.26-.1v.73a2.07,2.07,0,0,1-.21.92A2.91,2.91,0,0,1,68,15a2.72,2.72,0,0,1-.85.53,2.9,2.9,0,0,1-1.07.19"/>
    <path class="a" d="M103.41,7.87a4.08,4.08,0,0,0-1-1.74,4.74,4.74,0,0,0-1.84-1.07,9.12,9.12,0,0,0-2.68-.35,9.32,9.32,0,0,0-2.71.34,4.9,4.9,0,0,0-1.87,1,3.94,3.94,0,0,0-1.06,1.58,6.31,6.31,0,0,0-.35,1.94V10h3.85l0-.32a2.05,2.05,0,0,1,.53-1.17,2,2,0,0,1,1.41-.41,2.71,2.71,0,0,1,1.39.3.71.71,0,0,1,.4.66.69.69,0,0,1-.28.66,3.74,3.74,0,0,1-1.56.42c-.85.13-1.65.26-2.37.41a6.18,6.18,0,0,0-2,.74A3.67,3.67,0,0,0,92,12.67,5,5,0,0,0,91.48,15a3.71,3.71,0,0,0,1.14,2.81,5,5,0,0,0,3.49,1.07,6.35,6.35,0,0,0,2.43-.43,5,5,0,0,0,1.18-.66,3.66,3.66,0,0,0,.12.5l.08.26h3.79V10.13a7.93,7.93,0,0,0-.3-2.26m-6.54,7.89c-1.12,0-1.27-.53-1.27-1.06a1.16,1.16,0,0,1,.41-1,4.41,4.41,0,0,1,1.84-.66,13.38,13.38,0,0,0,1.47-.34l.26-.1,0,.73a2.06,2.06,0,0,1-.2.92,2.91,2.91,0,0,1-.57.77,2.72,2.72,0,0,1-.85.53,2.9,2.9,0,0,1-1.07.19"/>
    <path class="a" d="M80.29,4.85a3.44,3.44,0,0,0-1.07.27,4,4,0,0,0-1,.61,2.91,2.91,0,0,0-.27.24V4.81H74V18.53h4.13V11.64c0-1.86.86-2.73,2.72-2.73a5.24,5.24,0,0,1,.88.08l.43.07V4.79h-.81a9.16,9.16,0,0,0-1.06.06"/>
    <polygon class="a" points="4.11 1.75 0 1.75 0 18.52 10.06 18.52 10.06 14.88 4.11 14.88 4.11 1.75"/>
    <path class="a" d="M87,1.75H83V13.4a7.18,7.18,0,0,0,.3,2.09,4.61,4.61,0,0,0,1,1.78A5,5,0,0,0,86,18.48a6.62,6.62,0,0,0,2.53.44,7.65,7.65,0,0,0,1.57-.16V15.24H88.51a1.25,1.25,0,0,1-1.08-.5A3,3,0,0,1,87,13.06V8.68h3.09V5.05H87Z"/>
  </g>
</svg>
