<svg xmlns="http://www.w3.org/2000/svg" xmlns:xlink="http://www.w3.org/1999/xlink" viewBox="0 0 87.22 42.42">
  <defs>
    <style>
      .a {
        fill: url(#a);
      }

      .b {
        fill: url(#b);
      }

      .c, .e {
        fill: #0e0d0d;
      }

      .c {
        opacity: 0.4;
      }

      .d {
        fill: url(#c);
      }

      .e {
        opacity: 0.2;
      }

      .f {
        fill: url(#d);
      }

      .g {
        fill: url(#e);
      }

      .h {
        fill: #161112;
      }

      .i {
        fill: #fff;
      }

      .j {
        fill: #ec2224;
      }
    </style>
    <radialGradient id="a" cx="59.12" cy="0.19" r="38.53" gradientUnits="userSpaceOnUse">
      <stop offset="0" stop-color="#ec1c24"/>
      <stop offset="0.46" stop-color="#ec1c24"/>
      <stop offset="0.56" stop-color="#e71c24"/>
      <stop offset="0.68" stop-color="#d81b22"/>
      <stop offset="0.81" stop-color="#bf1b20"/>
      <stop offset="0.95" stop-color="#9c191d"/>
      <stop offset="1" stop-color="#8f191c"/>
    </radialGradient>
    <radialGradient id="b" cx="62.06" cy="3.03" r="23.38" gradientUnits="userSpaceOnUse">
      <stop offset="0" stop-color="#dddbc3"/>
      <stop offset="0.25" stop-color="#9d9c8b"/>
      <stop offset="0.51" stop-color="#605f55"/>
      <stop offset="0.73" stop-color="#34322e"/>
      <stop offset="0.9" stop-color="#181716"/>
      <stop offset="1" stop-color="#0e0d0d"/>
    </radialGradient>
    <linearGradient id="c" x1="65.89" y1="7.95" x2="65.92" y2="0.52" gradientUnits="userSpaceOnUse">
      <stop offset="0" stop-color="#ed272a"/>
      <stop offset="0.96" stop-color="#fad3d6"/>
    </linearGradient>
    <radialGradient id="d" cx="75.33" cy="25.36" r="2.12" xlink:href="#a"/>
    <linearGradient id="e" x1="73.23" y1="25.9" x2="76" y2="25.9" gradientUnits="userSpaceOnUse">
      <stop offset="0" stop-color="#fad3d6"/>
      <stop offset="0.13" stop-color="#f9c3c6"/>
      <stop offset="0.39" stop-color="#f69a9d"/>
      <stop offset="0.75" stop-color="#f1595c"/>
      <stop offset="1" stop-color="#ed272a"/>
    </linearGradient>
  </defs>
  <title>RadioDisney</title>
  <g>
    <path class="a" d="M71.33.71A21.57,21.57,0,0,0,65.86,0a21.2,21.2,0,0,0-5.45,41.71A21.22,21.22,0,1,0,71.33.71Z"/>
    <path class="b" d="M68.57,34.39A13.33,13.33,0,0,0,65.88,8a14,14,0,0,0-2.72.27,13.34,13.34,0,1,0,5.41,26.13Z"/>
    <path class="c" d="M74,15a10.25,10.25,0,0,1,1.87,14.42,10.4,10.4,0,0,1-14.52,1.85,10.24,10.24,0,0,1-1.86-14.41A10.4,10.4,0,0,1,74,15"/>
    <path class="d" d="M65.89.48c-8.36,0-15.13,5.4-15.13,8.57s6.77-1.92,15.13-1.92S81,12.22,81,9.05,74.23.48,65.89.48Z"/>
    <path class="e" d="M83.6,15.37a6.58,6.58,0,0,0-8.24,0,5.53,5.53,0,0,0-1.81,4.28,6.28,6.28,0,0,0,.22,1.66,1.19,1.19,0,0,0-.56-.14H70.72l2.86-5.56a1.19,1.19,0,0,0-1.07-1.74H68.92a1.21,1.21,0,0,0-1.08.65L65.1,19.85v-.34a5.4,5.4,0,0,0-1.81-4.19,6.28,6.28,0,0,0-7.83-.06v0a1.2,1.2,0,0,0-1.2-1.2H51a1.26,1.26,0,0,0-.79.29l-3,2.62a1.19,1.19,0,0,0-.42.9v3.47a1.21,1.21,0,0,0,2,.9l1-.9v8A1.2,1.2,0,0,0,51,30.53h3.27a1.19,1.19,0,0,0,.85-.35,1.15,1.15,0,0,0,.35-.84v0a6.06,6.06,0,0,0,3.87,1.33,6,6,0,0,0,4-1.4A4.6,4.6,0,0,0,64,28.5l.2,0h4.69v.67a1.21,1.21,0,0,0,.35.84,1.25,1.25,0,0,0,.85.35h3.12a1.21,1.21,0,0,0,.83-.33,2.29,2.29,0,0,0,1.24.37,2.35,2.35,0,0,0,.6-.08,1.23,1.23,0,0,0,.65.19h3.59a1.2,1.2,0,0,0,1.08-.67l2.73-5.58a10.46,10.46,0,0,0,1.48-4.63,5.53,5.53,0,0,0-1.81-4.28M76.66,26.43A2.23,2.23,0,0,0,75.47,26V24.23a1.54,1.54,0,0,0,0-.3,5,5,0,0,0,2,1Z"/>
    <path class="c" d="M83.68,13.6a6.61,6.61,0,0,0-8.24,0,5.55,5.55,0,0,0-1.81,4.29,6.34,6.34,0,0,0,.22,1.66,1.09,1.09,0,0,0-.56-.15H70.8l2.86-5.56a1.2,1.2,0,0,0-1.07-1.74H69a1.21,1.21,0,0,0-1.07.65l-2.74,5.34v-.34a5.42,5.42,0,0,0-1.81-4.19,6.3,6.3,0,0,0-7.83-.07v0a1.2,1.2,0,0,0-1.2-1.2H51.07a1.19,1.19,0,0,0-.79.3l-3,2.61a1.18,1.18,0,0,0-.42.9v3.47a1.2,1.2,0,0,0,2,.9l1-.89v8a1.2,1.2,0,0,0,.36.85,1.21,1.21,0,0,0,.85.35h3.27a1.2,1.2,0,0,0,1.2-1.2v0a6.28,6.28,0,0,0,7.83-.06,5.05,5.05,0,0,0,.7-.76l.21,0H69v.67a1.2,1.2,0,0,0,1.2,1.2h3.12a1.17,1.17,0,0,0,.83-.34,2.21,2.21,0,0,0,1.24.37,2.33,2.33,0,0,0,.59-.08,1.19,1.19,0,0,0,.66.2H80.2a1.21,1.21,0,0,0,1.08-.68L84,22.51a10.5,10.5,0,0,0,1.48-4.62,5.57,5.57,0,0,0-1.81-4.29M76.74,24.67a2.24,2.24,0,0,0-1.19-.47V22.46a1.54,1.54,0,0,0,0-.3,4.83,4.83,0,0,0,2,1Z"/>
    <path class="f" d="M74.27,26.42a1.05,1.05,0,0,0,1.06,1.06,1.06,1.06,0,1,0,0-2.12h0A1.06,1.06,0,0,0,74.27,26.42Z"/>
    <path class="g" d="M74.47,26c0,.21.39.38.86.37s.85-.17.85-.38-.37-.56-.84-.56h0C74.86,25.43,74.47,25.78,74.47,26Z"/>
    <path d="M5.83,16.68c-.78,0-3.41-.05-4,1,0,0-.22.6-.07.77A1,1,0,0,0,3,18.53s.15-.2-.15-.32l-.34,0s-.43-.44,2.24-.4A16.56,16.56,0,0,1,11.3,19.4c2.19.92,5.28,3.58,5.35,5.57.27,3.12-4.38,4.06-7.11,3.3a.46.46,0,0,1-.13-.37c0-.22-.06-3.24-.06-3.24a.25.25,0,0,1,.22-.11c.16,0,2.92.16,3.52.67,0,0,.17.15.09.25a7.5,7.5,0,0,1-.62.63,1.14,1.14,0,0,0,1,.22,1.33,1.33,0,0,0,.81-1.19c0-.16.33-1-2.14-1.79a8.14,8.14,0,0,0-2.68-.23c-.14,0-.16-.26-.16-.26a7.34,7.34,0,0,0-.16-2,1.55,1.55,0,0,0-.53-.62.26.26,0,0,0-.26.07l-.31.77a13,13,0,0,1-.26,2.07C4.3,23.93,4,25,4,25c-.59,1.5,3.48,3.69,3.56,3.71.3.07.29.29.29.29l.12.87.21.32s.75.23,1-.12.13-.2.13-.2l.16-.4a9.93,9.93,0,0,0,4.11.18S18,29,18.33,25.51a.86.86,0,0,0,0-.4C18.58,24.91,16.61,17.76,5.83,16.68Zm2,10.91a.17.17,0,0,1-.15.12H7.57c-2.71-1-3.12-2.19-3.12-2.19a.29.29,0,0,1,.12-.34,12.45,12.45,0,0,1,3.14-.62c.18,0,.18.09.18.09Z"/>
    <path d="M19.06,23.71a16.09,16.09,0,0,0-.17,4.56.68.68,0,0,0,1.28.36c.14-3.66-.11-5-.18-5.07s-.3-.39-.55-.39S19.14,23.3,19.06,23.71Z"/>
    <path d="M18.82,22.21a2.72,2.72,0,0,0,1.73,0c3-1,2.74-2.92,2.74-2.92-.09-.47-1.06-.76-1.06-.76-.24-.48-.88-.58-1.37-.58h0a3.78,3.78,0,0,0-.62.05c-2.78.95-2.69,2.46-2.69,2.46A1.62,1.62,0,0,0,18,21.69c-.22.85.4,1,.4,1A3.26,3.26,0,0,0,18.82,22.21Zm2.66-2.84c.2,0,1.68-.33.64,1a2.46,2.46,0,0,1-2.1.84,3.78,3.78,0,0,1-.56,0C19.33,20.86,21.28,19.4,21.48,19.37Zm-3,.71a3.61,3.61,0,0,1,.84-.81c.31-.12.38,0,.38,0s-1,1.13-1.21,1.31C18.23,20.54,18.44,20.08,18.44,20.08Z"/>
    <path d="M21.24,25.66c.35.32,2.09.24,3.56.47,0,0,1.32.62.22,1.08a6.61,6.61,0,0,1-3,.35c-.06,0-.36-.14-.47-.33s0-.34.49-.33c.32,0,1.17.37,1.8.38.19,0,2.5-.42-.21-1a3.47,3.47,0,0,0-2.27.14s-.76.85-.05,1.43c.07.36,3.25,2.26,5-.07a1.71,1.71,0,0,0-.95-2.34S22.67,25,22.43,25s-.86-.29,0-.42.8-.11,3.34-.36c1.6-.48.72-.92-.18-1.07l-.9,0c-2.55,0-3.52.8-3.52.8S20,25.15,21.24,25.66Z"/>
    <path d="M27.88,28.43l.17-2.73s0-.19.27-.09A9.14,9.14,0,0,0,29.6,28c0,.21,1.28,1.74,2-.65a5.45,5.45,0,0,0-1.24-4.71s-.28-.28-.47-.28-.19.11-.13.48c.16,1,.87,3.36.68,3.94,0,0,0,.24-.24,0s-1.55-2.66-1.94-2.92a.52.52,0,0,0-.76,0c-.66.68-.78,4.29-.78,4.29l0,.07C27.34,29.72,27.88,28.43,27.88,28.43Z"/>
    <path d="M36.18,23.33a1.59,1.59,0,0,0-.46,0,19.35,19.35,0,0,0-3.41.32s-.15.33.36.78l.43.09-.17,1s-.55.17-.62.32a1,1,0,0,0,.08.56A4.72,4.72,0,0,0,32,28.16c0,1.1,1.24,1.2,1.24,1.2,2.31-.31,2.84-1.29,2.84-1.29s.15-.6-.25-.7a4.08,4.08,0,0,0-1.26.16c-.57.13-1.12.25-1.2.1s.34-1.06.34-1.06a10.2,10.2,0,0,0,2-.13c.33-.14.29-.85.07-.89s-1.6-.08-1.6-.08l.16-.76s2.23.05,2.57-.36A1.41,1.41,0,0,0,36.18,23.33Z"/>
    <path d="M39.48,27.35a14.34,14.34,0,0,1,1.63-2.2s.63-.72.63.34a2.26,2.26,0,0,1-1.58,2,1.66,1.66,0,0,1-.67.25c-.29,0,0-.42,0-.42m-.95-3.94a6.07,6.07,0,0,0-1.66,3.4,1.56,1.56,0,0,0,.29,1.2S35.8,31.7,36,33c0,0,.43,1.19,1.24,1,.31-1.7,1.25-4.69,1.25-4.69,2,.37,3.38-1.69,3.38-1.69,2-2.65-.27-3.87-.27-3.87a.94.94,0,0,0-.64.11A18.83,18.83,0,0,0,38,26.73c-.22.1-.15-.16-.15-.16.18-1.16,1.37-2.54,1.3-3,.07-.28,0-.37-.12-.37a1.24,1.24,0,0,0-.51.22"/>
    <g>
      <path class="h" d="M.42,13.22a.43.43,0,0,0,0,.18.24.24,0,0,0,.25.25.25.25,0,0,0,.26-.26.32.32,0,0,0-.05-.18l.07,0a.43.43,0,0,1,.06.22.31.31,0,0,1-.33.33A.33.33,0,0,1,.3,13.4a.35.35,0,0,1,0-.2Zm-.28.22a.47.47,0,0,0,.49.46.46.46,0,0,0,.48-.46A.46.46,0,0,0,.63,13a.47.47,0,0,0-.49.46Zm-.07,0a.55.55,0,0,1,.56-.55.55.55,0,1,1,0,1.1.55.55,0,0,1-.56-.55Z"/>
      <path class="h" d="M1.12,12.53a.66.66,0,0,0,0-.15.48.48,0,0,0-.52-.53.44.44,0,0,0-.47.5.87.87,0,0,0,0,.18ZM0,12.69a1.61,1.61,0,0,1,0-.33.71.71,0,0,1,.15-.5.56.56,0,0,1,.44-.17.67.67,0,0,1,.48.17.8.8,0,0,1,.17.55,2.35,2.35,0,0,1,0,.28Z"/>
      <path class="h" d="M1.24,11.49H.37v-.16h.87Zm-1-.08a.09.09,0,0,1-.1.1.1.1,0,0,1,0-.2.09.09,0,0,1,.1.1Z"/>
      <path class="h" d="M1.08,11.09a.48.48,0,0,0,.06-.22c0-.11,0-.16-.13-.16s-.12,0-.16.16-.14.23-.25.23a.27.27,0,0,1-.25-.3.45.45,0,0,1,.05-.22l.11,0a.39.39,0,0,0,0,.18A.14.14,0,0,0,.58,11c.08,0,.11-.06.15-.17s.14-.23.27-.23.26.12.26.33a.45.45,0,0,1-.06.24Z"/>
      <path class="h" d="M.6,10.35H.37v-.14H.51a.32.32,0,0,1-.16-.29c0-.12.07-.31.37-.31h.52v.16H.74c-.14,0-.26.05-.26.2a.23.23,0,0,0,.16.22h.6v.16Z"/>
      <path class="h" d="M.72,8.79A.22.22,0,0,0,.46,9a.26.26,0,0,0,.26.25Zm.11.46a.27.27,0,0,0,.3-.3.52.52,0,0,0,0-.24l.11,0A.66.66,0,0,1,1.26,9a.41.41,0,0,1-.44.43A.43.43,0,0,1,.34,9a.38.38,0,0,1,.42-.36H.83Z"/>
      <path class="h" d="M.37,8.38l.51-.19.18-.06h0L.88,8.07.37,7.9V7.73L1,8a1.26,1.26,0,0,1,.55.3.36.36,0,0,1,.1.2l-.13,0a.34.34,0,0,0-.08-.14.45.45,0,0,0-.18-.14H1.17l-.8.32Z"/>
    </g>
    <polygon class="i" points="48.04 16.09 48.04 19.55 51.07 16.94 51.07 27.57 54.34 27.57 54.34 13.47 51.07 13.47 48.04 16.09"/>
    <path class="i" d="M59.41,13.35a4.29,4.29,0,0,0-4.56,4.4v5.54a4.56,4.56,0,0,0,9.12,0V17.75A4.29,4.29,0,0,0,59.41,13.35Zm1.3,10a1.31,1.31,0,1,1-2.6,0V17.75a1.31,1.31,0,1,1,2.6,0Z"/>
    <path class="i" d="M79.56,13.35c-2.55,0-4.72,1.55-4.72,4.54a4,4,0,0,0,3.78,4.26,2.37,2.37,0,0,0,.8-.1l-2.81,5.52H80.2L82.93,22a9.51,9.51,0,0,0,1.35-4.1C84.28,14.9,82.11,13.35,79.56,13.35Zm0,6.14a1.44,1.44,0,0,1-1.46-1.6,1.47,1.47,0,1,1,2.92,0A1.44,1.44,0,0,1,79.56,19.49Z"/>
    <polygon class="i" points="73.29 20.6 70.17 20.6 70.17 22.46 67.87 22.46 72.59 13.3 68.99 13.3 64.28 22.46 64.28 25.55 70.17 25.55 70.17 27.42 73.29 27.42 73.29 25.55 74.35 25.55 74.35 22.46 73.29 22.46 73.29 20.6"/>
    <path class="j" d="M38.25,18.48c-2.58,0-4.69-1.5-4.69-3.35s2.11-3.35,4.69-3.35S43,13.29,43,15.13s-2.12,3.35-4.7,3.35m0-4.5a1.15,1.15,0,1,0,1.16,1.16A1.16,1.16,0,0,0,38.25,14"/>
    <path class="j" d="M31.48,11.37c1,0,1.93-.68,1.93-1.52s-.95-1.5-1.93-1.5a1.63,1.63,0,0,0-1.74,1.5,1.64,1.64,0,0,0,1.74,1.52"/>
    <rect class="j" x="29.91" y="12.07" width="3.18" height="6.19"/>
    <path class="j" d="M26.16,8.82V12a7.62,7.62,0,0,0-.85,0c-2.53,0-4.6,1.48-4.6,3.29s1.38,3,4,3h4.44V8.82Zm0,7.5h-.53c-1,0-1.62-.13-1.62-1.13S24.65,14,25.62,14h.53Z"/>
    <path class="j" d="M16.22,18.29h2.19a6.77,6.77,0,0,1,1.64-.8h.08l.24,0V12h-4c-2.45,0-4.44,1.43-4.44,3.17,0,1.49,1.84,3.09,4.31,3.09m.8-4.23h.53v.09h0v2.16H17c-1,0-1.62-.13-1.62-1.13s.66-1.14,1.62-1.14"/>
    <path class="j" d="M2.38,16.58a5.73,5.73,0,0,1,1.3-.31,20.19,20.19,0,0,1,2-.12v-2.3l1.68,2.5a18.37,18.37,0,0,1,5.56,1.77l-2.76-4.31a3.3,3.3,0,0,0,1.54-2.7c0-1.9-1.83-3.45-4.08-3.45H2.29v9l.09,0M5.63,10h1c1,0,1.51.53,1.51,1.13s-.49,1.17-1.51,1.17h-1Z"/>
  </g>
</svg>
